{
    "model": "DiningRequestAction",
    "settings": {
        "i18n": {
            "el": {
                "Yes": "Ναι",
                "No": "Όχι",
                "Prerequisites": "Προϋποθέσεις Σίτισης",
                "Military Active": "Είσαι στρατευμένος;",
                "Are you a student of a Military School?": "Φοιτάς σε στρατιωτική σχολή;",
                "Do you already live in a Student House?": "Διαμένεις σε φοιτητική εστία;",
                "Do you hold same degree with your current one in the university?": "Κατέχεις ήδη πτυχίο του ιδίου κύκλου σπουδών με τον τρέχοντα κύκλο σπουδών σου στο πανεπιστήμιο;",
                "Τo the special category belong": "Στην ειδική κατηγορία ανήκει",
                "All the information I sumbit in the application - statement is true.": "Όλα τα στοιχεία που αναφέρω στην αίτηση - δήλωση είναι αληθή.",
                "The submission of an untrue or inaccurate statement, fake or forged supporting documents is subject to the consequences of the law (Common Ministerial Decision: Νο. 5 par. 1e, Greek Government Gazette B of 1965/18-6-2012).": "​Η υποβολή αναληθούς δήλωσης ή ανακριβών, ψευδών ή πλαστών δικαιολογητικών υπόκειται στις συνέπειες του νόμου (Σίτιση Φοιτητών ΚΥΑ: Αρ. 5 παρ. 1ε, ΦΕΚ Β' 1965/18-6-2012).",
                "An application to get free access to Dining Services must be submitted by students each year. Erasmus student applications are automatically approved. All others will need to submit up-to-date financial status and other certificates for approval according to the Ministerial Decree Φ.5/65835/Β3/18.06.2012.": "Η αίτηση για δωρεάν σίτιση σε κάθε νέο ακαδημαϊκό έτος καθώς και όλα τα απαραίτητα, ενημερωμένα δικαιολογητικά υποβάλλονται ηλεκτρονικά σύμφωνα με τη Κοινή Υπουργική Απόφαση: Φ.5/65835/Β3/18.06.2012.",
                "CAUTION! According to your registration information you may NOT be entitled to free dining.": "ΠΡΟΣΟΧΗ! Σύμφωνα με τα στοιχεία εγγραφής σας είναι πιθανόν να μην δικαιούστε δωρεάν σίτιση και η αίτηση σας μπορεί να απορριφθεί.",
                "Self": "Ο ίδιος",
                "Relatives (e.g parents, siblings, spouse or children)": "Συγγενικό πρόσωπο (πχ οι γονείς, οι αδελφοί και οι σύζυγοι ή συμβίοι, τέκνα)", 
                "Special category": "Προϋποθέσεις ειδικής κατηγορίας",
                "DATA PROTECTION": "ΠΡΟΣΤΑΣΙΑ ΠΡΟΣΩΠΙΚΩΝ ΔΕΔΟΜΕΝΩΝ",
                "I have read and accept the DATA PROTECTION POLICY.": "Έχω διαβάσει και αποδέχομαι την ΠΟΛΙΤΙΚΗ ΠΡΟΣΤΑΣΙΑΣ ΠΡΟΣΩΠΙΚΩΝ ΔΕΔΟΜΕΝΩΝ.",
                "If consent is not provided, the application cannot be submitted.": "Σε περίπτωση μη συναίνεσης  η αίτηση δεν μπορεί να υποβληθεί.",
                "DATA PROTECTION POLICY": "ΠΟΛΙΤΙΚΗ ΠΡΟΣΤΑΣΙΑΣ ΠΡΟΣΩΠΙΚΩΝ ΔΕΔΟΜΕΝΩΝ"
            }
        }
    },
    "components": [
        {
            "title": "Prerequisites",
            "collapsible": false,
            "key": "diningPrerequisitesTempi",
            "type": "panel",
            "label": "Prerequisites",
            "input": false,
            "customClass": "dining-panel-wrapper",
            "components": [
                {
                    "input": true,
                    "label": "Military Active",
                    "tooltip": "Those who serve their military service and/or attend a military school are NOT entitled to free dining.",
                    "key": "militaryActive",
                    "values": [
                        {
                            "value": "true",
                            "label": "Yes"
                        },
                        {
                            "value": "false",
                            "label": "No"
                        }
                    ],
                    "type": "radio",
                    "labelPosition": "left-left",
                    "optionsLabelPosition": "right",
                    "labelWidth": 50,
                    "labelMargin": 3,
                    "inline": true,
                    "customClass": "radio-wrapper",
                    "dataType": "boolean",
                    "validate": {
                        "required": true,
                        "customMessage": "Required Field"
                    }, 
                    "disabled": true
                },
                {
                    "input": true,
                    "label": "Are you a student of a Military School?",
                    "key": "militarySchool",
                    "values": [
                        {
                            "value": "true",
                            "label": "Yes"
                        },
                        {
                            "value": "false",
                            "label": "No"
                        }
                    ],
                    "type": "radio",
                    "hidden": false,
                    "labelPosition": "left-left",
                    "optionsLabelPosition": "right",
                    "labelWidth": 50,
                    "labelMargin": 3,
                    "inline": true,
                    "customClass": "radio-wrapper",
                    "dataType": "boolean",
                    "validate": {
                        "required": true,
                        "customMessage": "Required Field"
                    }, 
                    "disabled": true
                },
                {
                    "input": true,
                    "label": "Do you already live in a Student House?",
                    "key": "studentHouseResident",
                    "values": [
                        {
                            "value": "true",
                            "label": "Yes"
                        },
                        {
                            "value": "false",
                            "label": "No"
                        }
                    ],
                    "type": "radio",
                    "labelPosition": "left-left",
                    "optionsLabelPosition": "right",
                    "labelWidth": 50,
                    "labelMargin": 3,
                    "inline": true,
                    "customClass": "radio-wrapper",
                    "dataType": "boolean",
                    "validate": {
                        "required": true,
                        "customMessage": "Required Field"
                    }, 
                    "disabled": true
                },
                {
                    "input": true,
                    "label": "Do you hold same degree with your current one in the university?",
                    "key": "sameDegreeHolder",
                    "values": [
                        {
                            "value": "true",
                            "label": "Yes"
                        },
                        {
                            "value": "false",
                            "label": "No"
                        }
                    ],
                    "type": "radio",
                    "labelPosition": "left-left",
                    "optionsLabelPosition": "right",
                    "labelWidth": 50,
                    "labelMargin": 3,
                    "inline": true,
                    "customClass": "radio-wrapper",
                    "dataType": "boolean",
                    "validate": {
                        "required": true,
                        "customMessage": "Required Field"
                    }, 
                    "disabled": true
                }
            ]
        },
        {
            "label": "Information Note",
            "key": "informationNote",
            "type": "panel",
            "collapsible": false,
            "title": "Information Note",
            "customClass": "dining-panel-wrapper",
            "input" : false,
            "components": [
                {
                    "label": "HTML",
                    "attrs": [
                        {
                            "attr": "",
                            "value": ""
                        }
                    ],
                    "content": "{{ instance.t('According to Decree Φ5/68535/Β3/18.6.2012 ΦΕΚ 1965 Β’ 18.6.12, NOT entitled to free dining are') }}<br/><br/><b>1.</b> {{ instance.t('Those who have completed the maximum time limit for the provision of free dining, which is: UNDERGRADUATE (minimum study plus two (2) years), MASTER (graduate years of regular study), DOCTOR (four (4) years.') }}<br/><b>2.</b> {{ instance.t('Those who serve their military service and/or attend a military school and for as long as their study lasts.') }}<br/><b>3.</b> {{ instance.t('Undergraduates who were enrolled in the University with QUALIFICATION EXAMINATIONS or are GRADUATES OF OTHER UNIVERSITY or TECHNINCAL EDUCATIONAL INSTITUTION.') }}<br/><b>4.</b> {{ instance.t('Postgraduate or Doctoral students who ALREADY hold a postgraduate or a doctoral degree respectively.') }}<br/><b>5.</b> {{ instance.t('Those who reside in University accommodation facilities.') }}<br/><br/><p><b><span style='color:red;'>{{ instance.t('According to your registration information and/or the details of your application you are not entitled to free dining.') }}</b></span></p>",
                    "refreshOnChange": false,
                    "key": "html",
                    "type": "htmlelement",
                    "input": false,
                    "tableView": false
                }
            ],            
            "conditional": {
                "json": {
                    "or" : [                                                
                        {"===" : [{ "var" : "data.militaryActive" }, true ] },
                        {"===" : [{ "var" : "data.militarySchool" }, true ] },
                        {"===" : [{ "var" : "data.studentHouseResident" }, true ] },
                        {"===" : [{ "var" : "data.sameDegreeHolder" }, true ] },
                        {"===" : [{ "var" : "data.qualificationExams" }, true ] }
                    ]                                        
                }
            }, 
            "disabled": true
        },
        {
            "title": "Special category",
            "collapsible": false,
            "key": "specialCategorySelfParticipantDiningPrerequisites",
            "type": "panel",
            "label": "Prerequisites",
            "input": false,
            "customClass": "dining-panel-wrapper",
            "components": [
                {
                    "input": true,
                    "label": "Τo the special category belong",
                    "key": "specialCategorySelfParticipant",
                    "values": [
                        {
                            "value": "true",
                            "label": "Self"
                        },
                        {
                            "value": "false",
                            "label": "Relatives (e.g parents, siblings, spouse or children)"
                        }
                    ],
                    "type": "radio",
                    "labelPosition": "left-left",
                    "optionsLabelPosition": "right",
                    "labelWidth": 50,
                    "labelMargin": 3,
                    "inline": true,
                    "customClass": "radio-wrapper",
                    "dataType": "boolean",
                    "clearOnHide": false,
                    "validate": {
                        "required": true,
                        "customMessage": "Required Field"
                    },
                    "disabled": true
                }
            ],
            "conditional": {
                "json": {
                    "and" : [                                                
                        {"===" : [{ "var" : "data.militaryActive" }, false ] },
                        {"===" : [{ "var" : "data.militarySchool" }, false ] },
                        {"===" : [{ "var" : "data.studentHouseResident" }, false ] },
                        {"===" : [{ "var" : "data.sameDegreeHolder" }, false ] }
                    ]                                        
                }
            }
        },
        {
            "label": "Solemn Declaration",
            "key": "solemnDeclaration",
            "type": "panel",
            "collapsible": false,
            "title": "",
            "customClass": "dining-panel-wrapper",
            "input": false,
            "components": [
                {
                    "input": true,
                    "inputType": "checkbox",
                    "label": "All the information I sumbit in the application - statement is true.",
                    "key": "allInformationSubmittedIsTrueConfirmation",
                    "type": "checkbox",
                    "dataType": "boolean",
                    "inline": true,
                    "validate": {
                        "required": true,
                        "customMessage": "Required Field"
                    }, 
                    "disabled": true
                },
                {
                    "label": "HTML",
                    "attrs": [
                        {
                            "attr": "",
                            "value": ""
                        }
                    ],
                    "content": "<span style='color:red;'>{{ instance.t('The submission of an untrue or inaccurate statement, fake or forged supporting documents is subject to the consequences of the law (Common Ministerial Decision: Νο. 5 par. 1e, Greek Government Gazette B of 1965/18-6-2012).') }}</span>",
                    "refreshOnChange": false,
                    "key": "html",
                    "type": "htmlelement",
                    "input": false,
                    "tableView": false,
                    "conditional": {
                        "json": {
                            "and": [
                                {
                                    "===": [
                                        {
                                            "var": "data.allInformationSubmittedIsTrueConfirmation"
                                        },
                                        true
                                    ]
                                }
                            ]
                        }
                    }
                },
                {
                    "label": "hasConsent",
                    "key": "diningRequestEvent.hasConsent",
                    "type": "hidden",
                    "tableView": false
                },
                {
                    "input": true,
                    "inputType": "checkbox",
                    "label": "I have read and accept the DATA PROTECTION POLICY.",
                    "key": "studentConsent",
                    "type": "checkbox",
                    "dataType" :"boolean",
                    "inline": true,
                    "disabled": true,
                    "validate": {
                        "required": true,
                        "custom": "valid = (data && data.diningRequestEvent && data.diningRequestEvent.hasConsent === true ? (data.studentConsent && data.studentConsent === true ? true : false) : true);",
                        "customMessage": "If consent is not provided, the application cannot be submitted."
                    },
                    "customConditional": "show = !!(data.diningRequestEvent && data.diningRequestEvent.hasConsent === true)"
                },
                {
                    "label": "HTML",
                    "attrs": [
                        {
                            "attr": "",
                            "value": ""
                        }
                    ],
                    "content": "<span><a href='' target='_blank'>{{ instance.t('DATA PROTECTION POLICY') }}</a></span>",
                    "refreshOnChange": false,
                    "key": "html",
                    "type": "htmlelement",
                    "input": false,
                    "tableView": false,
                    "customConditional": "show = !!(data.diningRequestEvent && data.diningRequestEvent.hasConsent)"
                }   
            ],
            "conditional": {
                "json": {
                    "and" : [                                                
                        {"===" : [{ "var" : "data.militaryActive" }, false ] },
                        {"===" : [{ "var" : "data.militarySchool" }, false ] },
                        {"===" : [{ "var" : "data.studentHouseResident" }, false ] },
                        {"===" : [{ "var" : "data.sameDegreeHolder" }, false ] }
                    ]      
                }
            }
        }
    ]
}