{
  "model": "DiningRequestEvents",
  "settings": {
    "i18n": {
      "el": {
        "Dining request event status": "Κατάσταση περιόδου σίτισης",
        "Academic year": "Ακαδημαϊκό έτος",
        "Dining request period ID": "Αναγνωριστικό περιόδου σίτισης",
        "Cancel": "Ακύρωση",
        "Valid from": "Τα δικαιώματα που θα εγκριθούν θα έχουν ισχύ από",
        "Valid through": "Τα ενεργά δικαιώματα θα ακυρωθούν την",
        "Request start date": "Ημερομηνία έναρξης περιόδου αιτήσεων σίτισης",
        "Request end date": "Ημερομηνία λήξης περιόδου αιτήσεων σίτισης",
        "Set the date when the dining period will end. This date will also be the expiration date of the dining cards.": "Ορίστε την ημερομηνία που θα λήξει η περίοδος αιτήσεων για δωρεάν σίτιση. Μετά την ημερομηνία αυτή δεν θα είναι δυνατόν να υποβληθούν αιτήσεις για δωρεάν σίτιση.",
        "Set the date when the dining period will begin. This date will also be the date from which the dining cards will be active, depending on the date of the application approval.": "Ορίστε την ημερομηνία που θα αρχίσει η περίοδος σίτισης. Η ημερομηνία αυτή θα είναι και η ημερομηνία από την οποία και μετά (ανάλογα την ημερομηνία έγκρισης αίτησης) τα δικαιώματα δωρεάν σίτισης θα έχουν ισχύ.",
        "Set the date when the dining period will begin. This date will also be the date after which students can start applying for this period.": "Ορίστε την ημερομηνία που θα αρχίσει η περίοδος αιτήσεων για δωρεάν σίτιση. Η ημερομηνία αυτή θα είναι και η ημερομηνία μετά την οποία θα μπορούν οι φοιτητές να υποβάλλουν αιτήσεις για την περίοδο αυτή.",
        "Set the date when the period for which the dining cards will expire. After this date, the dining cards will be cancelled.": "Ορίστε την ημερομηνία που θα λήξει η περίοδος για την οποία θα ισχύουν τα δικαιώματα δωρεάν σίτισης. Μετά την ημερομηνία αυτή τα ενεργά δικαιώματα δωρεάν σίτισης θα ακυρωθούν.",
        "Dining card period": "Περίοδος που τα δικαιώματα σίτισης μπορεί να είναι ενεργά",
        "Request period": "Περίοδος υποβολής αιτήσεων για δωρεάν σίτιση",
        "\"Start date\" cannot succeed \"end date\"": "Η ημερομηνία έναρξης δεν μπορεί να είναι αργότερα από την ημερομηνία λήξης",
        "\"End date\" cannot precede \"start date\".": "Η ημερομηνία λήξης δεν μπορεί να είναι νωρίτερα από την ημερομηνία έναρξης",
        "\"Valid Through\" date cannot precede \"Valid from\" date.": "Η ημερομηνία \"Ισχύει έως\" δεν μπορεί να είναι νωρίτερα από την ημερομηνία \"Ισχύει από\"",
        "\"Valid from\" date cannot succeed \"Valid through\" date.":"Η ημερομηνία \"Ισχύει από\" δεν μπορεί να είναι αργότερα από την ημερομηνία \"Ισχύει έως\"",
        "EventOpened": "Ανοιχτή",
        "EventCancelled": "Κλειστή"
      }
    }
  },
  "components": [
    {
      "key": "fieldSet",
      "type": "fieldset",
      "hideLabel": true,
      "input": false,
      "label": "Dining event information",
      "components": [
        {
          "label": "Columns",
          "columns": [
            {
              "components": [
                {
                  "label": "Dining request period ID",
                  "labelPosition": "top",
                  "widget": {
                    "type": "input"
                  },
                  "disabled": true,
                  "key": "id",
                  "type": "number"
                },
                {
                  "label": "diningRequests",
                  "labelPosition": "top",
                  "widget": {
                    "type": "input"
                  },
                  "hidden": true,
                  "disabled": true,
                  "key": "diningRequestActions",
                  "type": "number"
                }
              ],
              "width": 3,
              "offset": 0,
              "push": 0,
              "pull": 0
            },
            {
              "components": [
                {
                  "label": "Dining request event status",
                  "widget": "choicesjs",
                  "labelPosition": "top",
                  "template": "<span class='d-block pr-5 text-truncate'>{{ item.alternateName }}</span>",
                  "dataSrc": "url",
                  "data": {
                    "url": "EventStatusTypes?$orderby=name",
                    "headers": []
                  },
                  "selectValues": "value",
                  "validate": {
                    "required": true
                  },
                  "disabled": true,
                  "key": "eventStatus",
                  "idPath": "id",
                  "type": "select",
                  "input": true
                }
              ],
              "width": 5,
              "offset": 0,
              "push": 0,
              "pull": 0
            },
            {
              "components": [
                {
                  "label": "Academic year",
                  "widget": "choicesjs",
                  "labelPosition": "top",
                  "template": "<span class='d-block pr-5 text-truncate'>{{ item.alternateName }}</span>",
                  "dataSrc": "url",
                  "data": {
                    "url": "AcademicYears?$orderby=name desc",
                    "headers": []
                  },
                  "selectValues": "value",
                  "validate": {
                    "required": true
                  },
                  "disabled": true,
                  "key": "academicYear",
                  "idPath": "id",
                  "type": "select",
                  "input": true
                }
              ],
              "width": 4,
              "offset": 0,
              "push": 0,
              "pull": 0
            }
          ],
          "tableView": false,
          "key": "department",
          "type": "columns",
          "input": false,
          "path": "columns"
        },
        {
          "title": "Request period",
          "collapsible": false,
          "key": "requestActionPeriod",
          "type": "panel",
          "label": "Request period",
          "input": false,
          "customClass": "font-weight-bold pt-3",
          "components": [
            {
              "label": "Columns",
              "columns": [
                {
                  "components": [
                    {
                      "label": "Request start date",
                      "tableView": false,
                      "enableTime": false,
                      "enableMinDateInput": false,
                      "datePicker": {
                        "disableWeekends": false,
                        "disableWeekdays": false
                      },
                      "validate": {
                        "required": true,
                        "custom": "valid = input && data.endDate && moment(input).isBefore(data.endDate);"
                      },
                      "errors": {
                        "custom": "\"Start date\" cannot succeed \"end date\""
                      },
                      "disabled": true,
                      "enableMaxDateInput": false,
                      "key": "startDate",
                      "type": "datetime",
                      "input": true,
                      "description": "Set the date when the dining period will begin. This date will also be the date after which students can start applying for this period.",
                      "widget": {
                        "type": "calendar",
                        "displayInTimezone": "viewer",
                        "locale": "en",
                        "useLocaleSettings": false,
                        "allowInput": true,
                        "mode": "single",
                        "enableTime": true,
                        "noCalendar": false,
                        "format": "yyyy-MM-dd",
                        "hourIncrement": 1,
                        "minuteIncrement": 1,
                        "time_24hr": true,
                        "disableWeekends": false,
                        "disableWeekdays": false
                      }
                    }
                  ],
                  "width": 6,
                  "offset": 0,
                  "push": 0,
                  "pull": 0
                },
                {
                  "components": [
                    {
                      "label": "Request end date",
                      "tableView": false,
                      "enableTime": false,
                      "enableMinDateInput": false,
                      "datePicker": {
                        "disableWeekends": false,
                        "disableWeekdays": false
                      },
                      "validate": {
                        "required": true,
                        "custom": "valid = (input && data.startDate && moment(input).isAfter(data.startDate));"
                      },
                      "errors": {
                        "custom": "\"End date\" cannot precede \"start date\"."
                      },
                      "enableMaxDateInput": false,
                      "key": "endDate",
                      "type": "datetime",
                      "input": true,
                      "description": "Set the date when the dining period will end. This date will also be the expiration date of the dining cards.",
                      "logic": [
                        {
                          "name": "disableField",
                          "trigger": {
                            "type": "javascript",
                            "javascript": "result = !!(data.eventStatus && data.eventStatus.alternateName == 'EventCancelled')"
                          },
                          "actions": [
                            {
                              "name": "setDisable",
                              "type": "property",
                              "property": {
                                "label": "Disabled",
                                "value": "disabled",
                                "type": "boolean"
                              },
                              "state": true
                            }
                          ]
                        }
                      ],
                      "widget": {
                        "type": "calendar",
                        "displayInTimezone": "viewer",
                        "locale": "en",
                        "useLocaleSettings": false,
                        "allowInput": true,
                        "mode": "single",
                        "enableTime": false,
                        "noCalendar": false,
                        "format": "yyyy-MM-dd",
                        "hourIncrement": 1,
                        "minuteIncrement": 1,
                        "time_24hr": true,
                        "disableWeekends": false,
                        "disableWeekdays": false
                      }
                    }
                  ],
                  "width": 6,
                  "offset": 0,
                  "push": 0,
                  "pull": 0
                }
              ],
              "tableView": false,
              "key": "department",
              "type": "columns",
              "input": false,
              "path": "columns"
            }
          ]
        },
        {
          "title": "Dining card period",
          "collapsible": false,
          "key": "diningPrerequisites",
          "type": "panel",
          "label": "Prerequisites",
          "input": false,
          "customClass": "font-weight-bold",
          "components": [
            {
              "label": "Columns",
              "columns": [
                {
                  "components": [
                    {
                      "label": "Valid from",
                      "tableView": false,
                      "enableTime": false,
                      "enableMinDateInput": false,
                      "datePicker": {
                        "disableWeekends": false,
                        "disableWeekdays": false
                      },
                      "validate": {
                        "required": true,
                        "custom": "valid = input && data.validThrough && moment(input).isBefore(data.validThrough);"
                      },
                      "errors": {
                        "custom":  "\"Valid from\" date cannot succeed \"Valid through\" date."
                      },
                      "enableMaxDateInput": false,
                      "key": "validFrom",
                      "type": "datetime",
                      "input": true,
                      "disabled": true,
                      "description": "Set the date when the dining period will begin. This date will also be the date from which the dining cards will be active, depending on the date of the application approval.",
                      "widget": {
                        "type": "calendar",
                        "displayInTimezone": "viewer",
                        "locale": "en",
                        "useLocaleSettings": false,
                        "allowInput": true,
                        "mode": "single",
                        "enableTime": true,
                        "noCalendar": false,
                        "format": "yyyy-MM-dd",
                        "hourIncrement": 1,
                        "minuteIncrement": 1,
                        "time_24hr": true,
                        "disableWeekends": false,
                        "disableWeekdays": false
                      }
                    }
                  ],
                  "width": 6,
                  "offset": 0,
                  "push": 0,
                  "pull": 0
                },
                {
                  "components": [
                    {
                      "label": "Valid through",
                      "tableView": false,
                      "enableTime": false,
                      "enableMinDateInput": false,
                      "datePicker": {
                        "disableWeekends": false,
                        "disableWeekdays": false
                      },
                      "validate": {
                        "required": true,
                        "custom": "valid = input && data.validFrom && moment(input).isAfter(data.validFrom);"
                      },
                      "errors": {
                        "custom": "\"Valid Through\" date cannot precede \"Valid from\" date."
                      },
                      "enableMaxDateInput": false,
                      "key": "validThrough",
                      "type": "datetime",
                      "input": true,
                      "description": "Set the date when the period for which the dining cards will expire. After this date, the dining cards will be cancelled.",
                      "logic": [
                        {
                          "name": "disableField",
                          "trigger": {
                            "type": "javascript",
                            "javascript": "result = !!(data.eventStatus && data.eventStatus.alternateName === 'EventCancelled')"
                          },
                          "actions": [
                            {
                              "name": "setDisable",
                              "type": "property",
                              "property": {
                                "label": "Disabled",
                                "value": "disabled",
                                "type": "boolean"
                              },
                              "state": true
                            }
                          ]
                        }
                      ],
                      "widget": {
                        "type": "calendar",
                        "displayInTimezone": "viewer",
                        "locale": "en",
                        "useLocaleSettings": false,
                        "allowInput": true,
                        "mode": "single",
                        "enableTime": false,
                        "noCalendar": false,
                        "format": "yyyy-MM-dd",
                        "disableWeekends": false,
                        "disableWeekdays": false
                      }
                    }
                  ],
                  "width": 6,
                  "offset": 0,
                  "push": 0,
                  "pull": 0
                }
              ],
              "tableView": false,
              "key": "diningWarning",
              "type": "columns",
              "input": false,
              "path": "columns"
            }
          ]
        }
      ]
    }
  ]
}